…
## Synthetic data generated with interactive fixed effect model
synth_data
#> # A tibble: 100 × 19
#>     year    Dt       Y      X1      X2      X3      X4      X5     X6      X7
#>    <int> <dbl>   <dbl>   <dbl>   <dbl>   <dbl>   <dbl>   <dbl>  <dbl>   <dbl>
#>  1     1     0 -59336. -36502. -41666. -33061. -45877. -31295. 56607. -23195.
#>  2     2     0 -55868. -34538. -39383. -31342. -43292. -29689. 52384. -22133.
#>  3     3     0 -52877. -32853. -37421. -29869. -41061. -28315. 48701. -21230.
#>  4     4     0 -49639. -30928. -35209. -28152. -38597. -26696. 45250. -20080.
#>  5     5     0 -46729. -29259. -33274. -26682. -36413. -25319. 41828. -19152.
#>  6     6     0 -44202. -27847. -31629. -25454. -34536. -24174. 38646. -18411.
#>  7     7     0 -41437. -26228. -29762. -24017. -32445. -22824. 35566. -17475.
#>  8     8     0 -38813. -24662. -27962. -22615. -30441. -21504. 32806. -16532.
#>  9     9     0 -36550. -23406. -26498. -21524. -28769. -20490. 29913. -15883.
#> 10    10     0 -34299. -22182. -25062. -20477. -27115. -19515. 26898. -15282.
#> # ℹ 90 more rows
#> # ℹ 9 more variables: X8 <dbl>, X9 <dbl>, X10 <dbl>, X11 <dbl>, X12 <dbl>,
#> #   X13 <dbl>, X14 <dbl>, X15 <dbl>, X16 <dbl>
…
